로이닝이태리퓨전(신천직영점) 
 
이태리정통요리와 멕시코요리를 유명한 로이닝! 
 
잠실/신천/송파 | 주점(이태리퓨전포차전문점) 
 
전화번호 02-3432-6729 
 
주소 서울 송파구 잠실본동 191-12번지 
 
영업시간 16:00 ~ 04:00 (새벽) 
 
휴무 연중무휴 
 
주차 가능 
 
메뉴 국물크림파스타12,000원,타워버거10,000원,베이컨퀘사디아13,000원,비프엔칠라다15,000원,모듬스테이크22,000원,빼쉐12,000원 
 
찾아가는길 신천역 4번출구로나와 직진 맥도날드,아웃백,기아자동차 지나서 좌회전 80m 직진 좌측 에 위치 
