지아니스 나폴리(가로수길점) 
 
이태리 베수비오 화산석으로 만든 화덕에 구운 vapore 정통 나폴리 피자가 인기인 Antica Napolitan Pizzeria 
 
가로수길/신사역 | 양식(나폴리피자전문점) 
 
전화번호 02-3416-0316 
 
주소 서울 강남구 신사동 541-6 2층 
 
영업시간 11:00~23:00(라스트오더 22:00) 
 
휴무 명절당일 
 
주차 가능 
 
메뉴 판짜넬라리코타샐러드 16,500원, 마르게리따 11,500원, 콰트로포르마지 16,800원, 감베리크레마 15,900원, 티라미수클래식 10,000원 
 
찾아가는길 신사역 8번 출구로 나와서 가로수길 진입 후 첫번째 오른쪽 골목 좌측편 
